logic1/dump.vcd
$version Generated by VerilatedVcd $end
$timescale 1ps $end
 $scope module $rootio $end
  $var wire 3 # alu_control [2:0] $end
  $var wire 32 $ s1 [31:0] $end
  $var wire 32 % s2 [31:0] $end
  $var wire 32 & alu_result [31:0] $end
  $var wire 1 ' zero $end
 $upscope $end
 $scope module alu $end
  $var wire 3 ( alu_control [2:0] $end
  $var wire 32 ) s1 [31:0] $end
  $var wire 32 * s2 [31:0] $end
  $var wire 32 + alu_result [31:0] $end
  $var wire 1 , zero $end
 $upscope $end
$enddefinitions $end


#0
b000 #
b00000000000000000000000000000000 $
b00000000000000000000000000000000 %
b00000000000000000000000000000000 &
1'
b000 (
b00000000000000000000000000000000 )
b00000000000000000000000000000000 *
b00000000000000000000000000000000 +
1,
#1000
b10111101101001101101011100100100 $
b00100010011001011111101100011111 %
b11100000000011001101001001000011 &
0'
b10111101101001101101011100100100 )
b00100010011001011111101100011111 *
b11100000000011001101001001000011 +
0,
#2000
b00110111111101110111100101110110 $
b10100000011010110011001011000011 %
b11011000011000101010110000111001 &
b00110111111101110111100101110110 )
b10100000011010110011001011000011 *
b11011000011000101010110000111001 +
#3000
b10010000111111111111001011010000 $
b11001010101110001111100110010111 %
b01011011101110001110110001100111 &
b10010000111111111111001011010000 )
b11001010101110001111100110010111 *
b01011011101110001110110001100111 +
#4000
b00100000000010000010100111111101 $
b11101111010000000000011001001111 %
b00001111010010000011000001001100 &
b00100000000010000010100111111101 )
b11101111010000000000011001001111 *
b00001111010010000011000001001100 +
#5000
b01111010100001100110000101010110 $
b10000100100011010001111110011101 %
b11111111000100111000000011110011 &
b01111010100001100110000101010110 )
b10000100100011010001111110011101 *
b11111111000100111000000011110011 +
#6000
b00101100111100000001011000000011 $
b10100111101101111111001001101010 %
b11010100101010000000100001101101 &
b00101100111100000001011000000011 )
b10100111101101111111001001101010 *
b11010100101010000000100001101101 +
#7000
b00110100101111011000100111110100 $
b00100001110010110101111011100011 %
b01010110100010001110100011010111 &
b00110100101111011000100111110100 )
b00100001110010110101111011100011 *
b01010110100010001110100011010111 +
#8000
b10000111110000001010010101100111 $
b01000111110011100000110111100001 %
b11001111100011101011001101001000 &
b10000111110000001010010101100111 )
b01000111110011100000110111100001 *
b11001111100011101011001101001000 +
#9000
b11100001001010111000011010001100 $
b00010110101011111100010111001101 %
b11110111110110110100110001011001 &
b11100001001010111000011010001100 )
b00010110101011111100010111001101 *
b11110111110110110100110001011001 +
#10000
b00101010100010110000100111010011 $
b01110001101100110000000100111010 %
b10011100001111100000101100001101 &
b00101010100010110000100111010011 )
b01110001101100110000000100111010 *
b10011100001111100000101100001101 +
#11000
b10011011011011111011000000000010 $
b10101111110100001101011001111001 %
b01001011010000001000011001111011 &
b10011011011011111011000000000010 )
b10101111110100001101011001111001 *
b01001011010000001000011001111011 +
#12000
b01111101111110110000010010000100 $
b01111000011001110101010111010110 %
b11110110011000100101101001011010 &
b01111101111110110000010010000100 )
b01111000011001110101010111010110 *
b11110110011000100101101001011010 +
#13000
b01000110010110100011000100010101 $
b10101011101011010101100111110111 %
b11110010000001111000101100001100 &
b01000110010110100011000100010101 )
b10101011101011010101100111110111 *
b11110010000001111000101100001100 +
#14000
b11110111111100111010101110111001 $
b10011001110000010101101000001010 %
b10010001101101010000010111000011 &
b11110111111100111010101110111001 )
b10011001110000010101101000001010 *
b10010001101101010000010111000011 +
#15000
b01100110111001110011000011011011 $
b11101110011000101100100100011001 %
b01010101010010011111100111110100 &
b01100110111001110011000011011011 )
b11101110011000101100100100011001 *
b01010101010010011111100111110100 +
#16000
b01001100110110110011000001110111 $
b00000110000011110000110010111000 %
b01010010111010100011110100101111 &
b01001100110110110011000001110111 )
b00000110000011110000110010111000 *
b01010010111010100011110100101111 +
#17000
b10110000101000010000100010111001 $
b10100010111101100011100000111111 %
b01010011100101110100000011111000 &
b10110000101000010000100010111001 )
b10100010111101100011100000111111 *
b01010011100101110100000011111000 +
#18000
b01001111111111001110110010000101 $
b10101001101101001001001100111100 %
b11111001101100010111111111000001 &
b01001111111111001110110010000101 )
b10101001101101001001001100111100 *
b11111001101100010111111111000001 +
#19000
b01111011001010101100011110010010 $
b10010010001111111100001100111101 %
b00001101011010101000101011001111 &
b01111011001010101100011110010010 )
b10010010001111111100001100111101 *
b00001101011010101000101011001111 +
#20000
b01000011110100111110010000100100 $
b11101011011110110101110111110001 %
b00101111010011110100001000010101 &
b01000011110100111110010000100100 )
b11101011011110110101110111110001 *
b00101111010011110100001000010101 +
#21000
b10111010101000001010000101000111 $
b10000111001001101010010011010011 %
b01000001110001110100011000011010 &
b10111010101000001010000101000111 )
b10000111001001101010010011010011 *
b01000001110001110100011000011010 +
#22000
b11100001110100111100000010000010 $
b01010011010001001110111110010010 %
b00110101000110001011000000010100 &
b11100001110100111100000010000010 )
b01010011010001001110111110010010 *
b00110101000110001011000000010100 +
#23000
b11111101000000100110000111101101 $
b11010110111100010110110110110111 %
b11010011111100111100111110100100 &
b11111101000000100110000111101101 )
b11010110111100010110110110110111 *
b11010011111100111100111110100100 +
#24000
b00101110101111110101001011000111 $
b01001000010100101101110111101010 %
b01110111000100100011000010110001 &
b00101110101111110101001011000111 )
b01001000010100101101110111101010 *
b01110111000100100011000010110001 +
#25000
b01011000010010111011110000001110 $
b10011010001110101110010010110110 %
b11110010100001101010000011000100 &
b01011000010010111011110000001110 )
b10011010001110101110010010110110 *
b11110010100001101010000011000100 +
#26000
b10100001110001101110111110001000 $
b11111000110011110001111001110100 %
b10011010100101100000110111111100 &
b10100001110001101110111110001000 )
b11111000110011110001111001110100 *
b10011010100101100000110111111100 +
#27000
b10001101001010000010111001011111 $
b11011100100011111001100111111100 %
b01101001101101111100100001011011 &
b10001101001010000010111001011111 )
b11011100100011111001100111111100 *
b01101001101101111100100001011011 +
#28000
b10001100111010001100111101010101 $
b01110011100010111101000110110010 %
b00000000011101001010000100000111 &
b10001100111010001100111101010101 )
b01110011100010111101000110110010 *
b00000000011101001010000100000111 +
#29000
b01100110101101111011000010100011 $
b01011111001101100010111111011110 %
b11000101111011011110000010000001 &
b01100110101101111011000010100011 )
b01011111001101100010111111011110 *
b11000101111011011110000010000001 +
#30000
b11110110101000101001111001110100 $
b01010110001000011111100110101010 %
b01001100110001001001100000011110 &
b11110110101000101001111001110100 )
b01010110001000011111100110101010 *
b01001100110001001001100000011110 +
#31000
b00111010001101110101000011010111 $
b11100100100101100100111111100111 %
b00011110110011011010000010111110 &
b00111010001101110101000011010111 )
b11100100100101100100111111100111 *
b00011110110011011010000010111110 +
#32000
b00011001001000001101000001100101 $
b00011100110100000110011111100011 %
b00110101111100010011100001001000 &
b00011001001000001101000001100101 )
b00011100110100000110011111100011 *
b00110101111100010011100001001000 +
#33000
b00110000100001010100001001111010 $
b01010000110100111011100111101101 %
b10000001010110001111110001100111 &
b00110000100001010100001001111010 )
b01010000110100111011100111101101 *
b10000001010110001111110001100111 +
#34000
b00011011110111111001011010011111 $
b10111011011111110011011011000101 %
b11010111010111101100110101100100 &
b00011011110111111001011010011111 )
b10111011011111110011011011000101 *
b11010111010111101100110101100100 +
#35000
b11110000100101010000011011111110 $
b01101010100011001000000110110001 %
b01011011001000011000100010101111 &
b11110000100101010000011011111110 )
b01101010100011001000000110110001 *
b01011011001000011000100010101111 +
#36000
b11101010101110110100110110100001 $
b11011111010010011000100000110101 %
b11001010000001001101010111010110 &
b11101010101110110100110110100001 )
b11011111010010011000100000110101 *
b11001010000001001101010111010110 +
#37000
b10110001110110001000001111001101 $
b11111111101001000111011110100000 %
b10110001011111001111101101101101 &
b10110001110110001000001111001101 )
b11111111101001000111011110100000 *
b10110001011111001111101101101101 +
#38000
b01010110110011001101100000000110 $
b01000101000110001100111001010100 %
b10011011111001011010011001011010 &
b01010110110011001101100000000110 )
b01000101000110001100111001010100 *
b10011011111001011010011001011010 +
#39000
b01110100000001010110010101010010 $
b11000111011111110001111110100011 %
b00111011100001001000010011110101 &
b01110100000001010110010101010010 )
b11000111011111110001111110100011 *
b00111011100001001000010011110101 +
#40000
b10111111110100111011011110101011 $
b10100101000100110010101100101110 %
b01100100111001101110001011011001 &
b10111111110100111011011110101011 )
b10100101000100110010101100101110 *
b01100100111001101110001011011001 +
#41000
b11000011000100000110010100011111 $
b01110001101110001111000011110001 %
b00110100110010010101011000010000 &
b11000011000100000110010100011111 )
b01110001101110001111000011110001 *
b00110100110010010101011000010000 +
#42000
b11110111111111011001011111110011 $
b10111010111110101011011101111010 %
b10110010111110000100111101101101 &
b11110111111111011001011111110011 )
b10111010111110101011011101111010 *
b10110010111110000100111101101101 +
#43000
b10101101100001111100100110111111 $
b00111001101110100010110011110000 %
b11100111010000011111011010101111 &
b10101101100001111100100110111111 )
b00111001101110100010110011110000 *
b11100111010000011111011010101111 +
#44000
b11000100101000110111111001100001 $
b11111110110110110000000000100110 %
b11000011011111100111111010000111 &
b11000100101000110111111001100001 )
b11111110110110110000000000100110 *
b11000011011111100111111010000111 +
#45000
b01111010111110111111100011100101 $
b11111000011010000001001111011000 %
b01110011011001000000110010111101 &
b01111010111110111111100011100101 )
b11111000011010000001001111011000 *
b01110011011001000000110010111101 +
#46000
b00000010001100000111111111010101 $
b00001111000010100010000111011100 %
b00010001001110101010000110110001 &
b00000010001100000111111111010101 )
b00001111000010100010000111011100 *
b00010001001110101010000110110001 +
#47000
b11101101001111001001110100000111 $
b11110010001010101100001000111010 %
b11011111011001110101111101000001 &
b11101101001111001001110100000111 )
b11110010001010101100001000111010 *
b11011111011001110101111101000001 +
#48000
b10011000011001001000001110110011 $
b01100001001110000110110100111001 %
b11111001100111001111000011101100 &
b10011000011001001000001110110011 )
b01100001001110000110110100111001 *
b11111001100111001111000011101100 +
#49000
b11000110111110011110101101010011 $
b11100011010100110101111101110001 %
b10101010010011010100101011000100 &
b11000110111110011110101101010011 )
b11100011010100110101111101110001 *
b10101010010011010100101011000100 +
#50000
b11101101010100111000011011110111 $
b01001000101100011111110100101110 %
b00110110000001011000010000100101 &
b11101101010100111000011011110111 )
b01001000101100011111110100101110 *
b00110110000001011000010000100101 +
#51000
b00110111010000011100000000000010 $
b11101100110010100011100101101011 %
b00100100000010111111100101101101 &
b00110111010000011100000000000010 )
b11101100110010100011100101101011 *
b00100100000010111111100101101101 +
#52000
b10110010010010010110101111101110 $
b01100000011100111000000011000100 %
b00010010101111001110110010110010 &
b10110010010010010110101111101110 )
b01100000011100111000000011000100 *
b00010010101111001110110010110010 +
#53000
b01010110100100011000011111010111 $
b11100111111001010100100101111110 %
b00111110011101101101000101010101 &
b01010110100100011000011111010111 )
b11100111111001010100100101111110 *
b00111110011101101101000101010101 +
#54000
b01110101110111001000101010100001 $
b01001100111111110111001011100000 %
b11000010110110111111110110000001 &
b01110101110111001000101010100001 )
b01001100111111110111001011100000 *
b11000010110110111111110110000001 +
#55000
b10010111101110101010000000010000 $
b10111000010111100101110100110111 %
b01010000000110001111110101000111 &
b10010111101110101010000000010000 )
b10111000010111100101110100110111 *
b01010000000110001111110101000111 +
#56000
b00110000010110000111010010010010 $
b01100011011100101011101010100001 %
b10010011110010110010111100110011 &
b00110000010110000111010010010010 )
b01100011011100101011101010100001 *
b10010011110010110010111100110011 +
#57000
b10111110000100011011110010110000 $
b10111100100010010100101101001100 %
b01111010100110110000011111111100 &
b10111110000100011011110010110000 )
b10111100100010010100101101001100 *
b01111010100110110000011111111100 +
#58000
b00001010111111110000011111100100 $
b10110000100001110101010011100011 %
b10111011100001100101110011000111 &
b00001010111111110000011111100100 )
b10110000100001110101010011100011 *
b10111011100001100101110011000111 +
#59000
b00100011011101111100100110101011 $
b00011010000110011100111101010001 %
b00111101100100011001100011111100 &
b00100011011101111100100110101011 )
b00011010000110011100111101010001 *
b00111101100100011001100011111100 +
#60000
b10101101001101101001000100110110 $
b00110011000011001110101101010011 %
b11100000010000110111110010001001 &
b10101101001101101001000100110110 )
b00110011000011001110101101010011 *
b11100000010000110111110010001001 +
#61000
b01111110010100101110001011010011 $
b10111011001001011100100011000000 %
b00111001011110001010101110010011 &
b01111110010100101110001011010011 )
b10111011001001011100100011000000 *
b00111001011110001010101110010011 +
#62000
b01111010110110110100001011000011 $
b01011010001001010001010000010001 %
b11010101000000000101011011010100 &
b01111010110110110100001011000011 )
b01011010001001010001010000010001 *
b11010101000000000101011011010100 +
#63000
b10000100011011111011000010001011 $
b11100011011100111001110011000111 %
b01100111111000110100110101010010 &
b10000100011011111011000010001011 )
b11100011011100111001110011000111 *
b01100111111000110100110101010010 +
#64000
b10000000111111011000100101000111 $
b01110010100100000100010101001110 %
b11110011100011011100111010010101 &
b10000000111111011000100101000111 )
b01110010100100000100010101001110 *
b11110011100011011100111010010101 +
#65000
b00101101111000001000101011011111 $
b10001100010001100011100001000100 %
b10111010001001101100001100100011 &
b00101101111000001000101011011111 )
b10001100010001100011100001000100 *
b10111010001001101100001100100011 +
#66000
b10011010010010001101111111110100 $
b01100101110101100001110010010010 %
b00000000000111101111110010000110 &
b10011010010010001101111111110100 )
b01100101110101100001110010010010 *
b00000000000111101111110010000110 +
#67000
b11110101110100000000000001001010 $
b10001001111101100010000101010111 %
b01111111110001100010000110100001 &
b11110101110100000000000001001010 )
b10001001111101100010000101010111 *
b01111111110001100010000110100001 +
#68000
b10101001001001101100101011011100 $
b00101101101001011010100100111011 %
b11010110110011000111010000010111 &
b10101001001001101100101011011100 )
b00101101101001011010100100111011 *
b11010110110011000111010000010111 +
#69000
b11011001100110001000100010011010 $
b01101000111101010010011111111100 %
b01000010100011011011000010010110 &
b11011001100110001000100010011010 )
b01101000111101010010011111111100 *
b01000010100011011011000010010110 +
#70000
b10010101111101011011001010101110 $
b10010110101111111111001000100111 %
b00101100101101011010010011010101 &
b10010101111101011011001010101110 )
b10010110101111111111001000100111 *
b00101100101101011010010011010101 +
#71000
b01101000111100011000100111011101 $
b01000010101001001000101001111011 %
b10101011100101100001010001011000 &
b01101000111100011000100111011101 )
b01000010101001001000101001111011 *
b10101011100101100001010001011000 +
#72000
b00110110101100011000010001000111 $
b01001000111111100100111011111110 %
b01111111101011111101001101000101 &
b00110110101100011000010001000111 )
b01001000111111100100111011111110 *
b01111111101011111101001101000101 +
#73000
b01011111000000111101110011001001 $
b11110000110101010100110110000000 %
b01001111110110010010101001001001 &
b01011111000000111101110011001001 )
b11110000110101010100110110000000 *
b01001111110110010010101001001001 +
#74000
b01101100011110010011111000010100 $
b11111001011001000110110000101001 %
b01100101110111011010101000111101 &
b01101100011110010011111000010100 )
b11111001011001000110110000101001 *
b01100101110111011010101000111101 +
#75000
b11010111111111011000101010010101 $
b01110111001100101111100001101101 %
b01001111001100001000001100000010 &
b11010111111111011000101010010101 )
b01110111001100101111100001101101 *
b01001111001100001000001100000010 +
#76000
b11010110010011100000011101110011 $
b10011101111001000110110000101110 %
b01110100001100100111001110100001 &
b11010110010011100000011101110011 )
b10011101111001000110110000101110 *
b01110100001100100111001110100001 +
#77000
b10101011000100000001111110101001 $
b10011111011000101101101100011000 %
b01001010011100101111101011000001 &
b10101011000100000001111110101001 )
b10011111011000101101101100011000 *
b01001010011100101111101011000001 +
#78000
b10001000100010011000001110001100 $
b00001010111100000010100111110010 %
b10010011011110011010110101111110 &
b10001000100010011000001110001100 )
b00001010111100000010100111110010 *
b10010011011110011010110101111110 +
#79000
b00010111111100010000010100110100 $
b00111100111010000110101011010110 %
b01010100110110010111000000001010 &
b00010111111100010000010100110100 )
b00111100111010000110101011010110 *
b01010100110110010111000000001010 +
#80000
b10011000001001000101011101010001 $
b01101010000011111110101111000000 %
b00000010001101000100001100010001 &
b10011000001001000101011101010001 )
b01101010000011111110101111000000 *
b00000010001101000100001100010001 +
#81000
b10110111101000000011001001000001 $
b00001011011110110111010001010111 %
b11000011000110111010011010011000 &
b10110111101000000011001001000001 )
b00001011011110110111010001010111 *
b11000011000110111010011010011000 +
#82000
b01001111101001010010011111111011 $
b01111011110110001110110000011101 %
b11001011011111100001010000011000 &
b01001111101001010010011111111011 )
b01111011110110001110110000011101 *
b11001011011111100001010000011000 +
#83000
b10100110001000000101111100001101 $
b11101100100011100100111101000101 %
b10010010101011101010111001010010 &
b10100110001000000101111100001101 )
b11101100100011100100111101000101 *
b10010010101011101010111001010010 +
#84000
b01010111000111011011110111001010 $
b00000000100101111001100101111001 %
b01010111101101010101011101000011 &
b01010111000111011011110111001010 )
b00000000100101111001100101111001 *
b01010111101101010101011101000011 +
#85000
b00000011010111010100110001010101 $
b00000011000110011011101001001110 %
b00000110011101110000011010100011 &
b00000011010111010100110001010101 )
b00000011000110011011101001001110 *
b00000110011101110000011010100011 +
#86000
b00111101101000111100100110010010 $
b11011000100110111010100010111001 %
b00010110001111110111001001001011 &
b00111101101000111100100110010010 )
b11011000100110111010100010111001 *
b00010110001111110111001001001011 +
#87000
b11001001011010000010011111110110 $
b10010100011111100100110011101110 %
b01011101111001100111010011100100 &
b11001001011010000010011111110110 )
b10010100011111100100110011101110 *
b01011101111001100111010011100100 +
#88000
b00110100001111100001010010111000 $
b10001011110111011111101001110101 %
b11000000000111000000111100101101 &
b00110100001111100001010010111000 )
b10001011110111011111101001110101 *
b11000000000111000000111100101101 +
#89000
b10110011011010110111101011110101 $
b01011110100111111011000001011100 %
b00010010000010110010101101010001 &
b10110011011010110111101011110101 )
b01011110100111111011000001011100 *
b00010010000010110010101101010001 +
#90000
b01111100110100001010000001101000 $
b00101001110011110000110101110000 %
b10100110100111111010110111011000 &
b01111100110100001010000001101000 )
b00101001110011110000110101110000 *
b10100110100111111010110111011000 +
#91000
b10111000100000111101100010100010 $
b10101010100011001010010100101001 %
b01100011000100000111110111001011 &
b10111000100000111101100010100010 )
b10101010100011001010010100101001 *
b01100011000100000111110111001011 +
#92000
b00100011001011011000010000111000 $
b01001010011110111110010101010000 %
b01101101101010010110100110001000 &
b00100011001011011000010000111000 )
b01001010011110111110010101010000 *
b01101101101010010110100110001000 +
#93000
b10111000011110011010100110110001 $
b01111110111110010110001011111001 %
b00110111011100110000110010101010 &
b10111000011110011010100110110001 )
b01111110111110010110001011111001 *
b00110111011100110000110010101010 +
#94000
b00100101111110111011111110101010 $
b10101000000010001011011000101011 %
b11001110000001000111010111010101 &
b00100101111110111011111110101010 )
b10101000000010001011011000101011 *
b11001110000001000111010111010101 +
#95000
b00001010010000101010100110111001 $
b11111110100001010011000011111100 %
b00001000110001111101101010110101 &
b00001010010000101010100110111001 )
b11111110100001010011000011111100 *
b00001000110001111101101010110101 +
#96000
b00101100110111101111100100111111 $
b00111011100001000101101011101000 %
b01101000011000110101010000100111 &
b00101100110111101111100100111111 )
b00111011100001000101101011101000 *
b01101000011000110101010000100111 +
#97000
b11000000010011100001111110111111 $
b00000101101100100110010101011001 %
b11000110000000001000010100011000 &
b11000000010011100001111110111111 )
b00000101101100100110010101011001 *
b11000110000000001000010100011000 +
#98000
b00101110001110010101111101100111 $
b00110011110000111100110111000111 %
b01100001111111010010110100101110 &
b00101110001110010101111101100111 )
b00110011110000111100110111000111 *
b01100001111111010010110100101110 +
#99000
b00110010011110101101000111011001 $
b11111110001000000011010110000011 %
b00110000100110110000011101011100 &
b00110010011110101101000111011001 )
b11111110001000000011010110000011 *
b00110000100110110000011101011100 +
#100000
b01100001110010101111111001101110 $
b01011000110100010000100101101100 %
b10111010100111000000011111011010 &
b01100001110010101111111001101110 )
b01011000110100010000100101101100 *
b10111010100111000000011111011010 +
#101000
b10001100101101110001100111110001 $
b01110101011010001001011010010100 %
b00000010000111111011000010000101 &
b10001100101101110001100111110001 )
b01110101011010001001011010010100 *
b00000010000111111011000010000101 +
#102000
b10001000101000011011101101001100 $
b00010100001011001110001001111001 %
b10011100110011101001110111000101 &
b10001000101000011011101101001100 )
b00010100001011001110001001111001 *
b10011100110011101001110111000101 +
#103000
b10100001000010111101010111001101 $
b11011001100010010010111001000100 %
b01111010100101010000010000010001 &
b10100001000010111101010111001101 )
b11011001100010010010111001000100 *
b01111010100101010000010000010001 +
#104000
b00111101100111001100111100110010 $
b00000010100100100100001111001110 %
b01000000001011110001001100000000 &
b00111101100111001100111100110010 )
b00000010100100100100001111001110 *
b01000000001011110001001100000000 +
#105000
b00000011010000111100001111101000 $
b01001111111100001011010110001000 %
b01010011001101000111100101110000 &
b00000011010000111100001111101000 )
b01001111111100001011010110001000 *
b01010011001101000111100101110000 +
#106000
b11100100010111001100011001011010 $
b00111010100100101110000101110010 %
b00011110111011111010011111001100 &
b11100100010111001100011001011010 )
b00111010100100101110000101110010 *
b00011110111011111010011111001100 +
#107000
b10001111000111001101011011110100 $
b01110000000111101010011000100001 %
b11111111001110110111110100010101 &
b10001111000111001101011011110100 )
b01110000000111101010011000100001 *
b11111111001110110111110100010101 +
#108000
b01011110011110001101001100011100 $
b01110100100110101100110011111011 %
b11010011000100111010000000010111 &
b01011110011110001101001100011100 )
b01110100100110101100110011111011 *
b11010011000100111010000000010111 +
#109000
b11010110001111111010101000111001 $
b00101000111111100001010010110011 %
b11111111001111011011111011101100 &
b11010110001111111010101000111001 )
b00101000111111100001010010110011 *
b11111111001111011011111011101100 +
#110000
b11110111000000110101111011000101 $
b10100100001010100000100000001110 %
b10011011001011010110011011010011 &
b11110111000000110101111011000101 )
b10100100001010100000100000001110 *
b10011011001011010110011011010011 +
#111000
b00111100100001000001011010110010 $
b10101000110110010101010011011000 %
b11100101010111010110101110001010 &
b00111100100001000001011010110010 )
b10101000110110010101010011011000 *
b11100101010111010110101110001010 +
#112000
b01101100011111101011100010110100 $
b01000101101111001111111100111010 %
b10110010001110111011011111101110 &
b01101100011111101011100010110100 )
b01000101101111001111111100111010 *
b10110010001110111011011111101110 +
#113000
b01111011010000011011111001000001 $
b10101111011100101010101011111010 %
b00101010101101000110100100111011 &
b01111011010000011011111001000001 )
b10101111011100101010101011111010 *
b00101010101101000110100100111011 +
#114000
b11001110001001010001011100110010 $
b10000011011011011111010010101111 %
b01010001100100110000101111100001 &
b11001110001001010001011100110010 )
b10000011011011011111010010101111 *
b01010001100100110000101111100001 +
#115000
b11101001110100111010110000110010 $
b10101100111000001101001111110100 %
b10010110101101001000000000100110 &
b11101001110100111010110000110010 )
b10101100111000001101001111110100 *
b10010110101101001000000000100110 +
#116000
b11011000001101011000101110001010 $
b11111101100001110010011011011100 %
b11010101101111001011001001100110 &
b11011000001101011000101110001010 )
b11111101100001110010011011011100 *
b11010101101111001011001001100110 +
#117000
b01110010100011000100011111011000 $
b11010000011000111101001001001000 %
b01000010111100000001101000100000 &
b01110010100011000100011111011000 )
b11010000011000111101001001001000 *
b01000010111100000001101000100000 +
#118000
b01001111110111111110110010111011 $
b11000010001110000110001011110100 %
b00010010000110000100111110101111 &
b01001111110111111110110010111011 )
b11000010001110000110001011110100 *
b00010010000110000100111110101111 +
#119000
b11010010010001110111000010111111 $
b01011010011000001000011101001110 %
b00101100101001111111100000001101 &
b11010010010001110111000010111111 )
b01011010011000001000011101001110 *
b00101100101001111111100000001101 +
#120000
b00100011111011100100110110101000 $
b00101111011110010110011011110010 %
b01010011011001111011010010011010 &
b00100011111011100100110110101000 )
b00101111011110010110011011110010 *
b01010011011001111011010010011010 +
#121000
b01110110001111011101001001011000 $
b01110111011011011101101110110101 %
b11101101101010111010111000001101 &
b01110110001111011101001001011000 )
b01110111011011011101101110110101 *
b11101101101010111010111000001101 +
#122000
b10000001110100011010110011011110 $
b01011011010110111001100011111100 %
b11011101001011010100010111011010 &
b10000001110100011010110011011110 )
b01011011010110111001100011111100 *
b11011101001011010100010111011010 +
#123000
b00010111101000011111100100001010 $
b10001011000101100111010101110111 %
b10100010101110000110111010000001 &
b00010111101000011111100100001010 )
b10001011000101100111010101110111 *
b10100010101110000110111010000001 +
#124000
b01011111001001010110001100100100 $
b11101100101110000001111010011011 %
b01001011110111011000000110111111 &
b01011111001001010110001100100100 )
b11101100101110000001111010011011 *
b01001011110111011000000110111111 +
#125000
b11011001110111111010100110010011 $
b11111010010111101010001111100101 %
b11010100001111100100110101111000 &
b11011001110111111010100110010011 )
b11111010010111101010001111100101 *
b11010100001111100100110101111000 +
#126000
b10101011000011011011100110001101 $
b00011101011011000111001000010011 %
b11001000011110100010101110100000 &
b10101011000011011011100110001101 )
b00011101011011000111001000010011 *
b11001000011110100010101110100000 +
#127000
b11101100101111111100100101001000 $
b11100110011100111011110011000010 %
b11010011001100111000011000001010 &
b11101100101111111100100101001000 )
b11100110011100111011110011000010 *
b11010011001100111000011000001010 +
#128000
b10001111000011100001101101110010 $
b00110100011100111110010101101101 %
b11000011100000100000000011011111 &
b10001111000011100001101101110010 )
b00110100011100111110010101101101 *
b11000011100000100000000011011111 +
#129000
b11011011100111101000011100011100 $
b01100001111110101000011011111010 %
b00111101100110010000111000010110 &
b11011011100111101000011100011100 )
b01100001111110101000011011111010 *
b00111101100110010000111000010110 +
#130000
b01000000101101001000101010110000 $
b11001110001001101011001101111110 %
b00001110110110110011111000101110 &
b01000000101101001000101010110000 )
b11001110001001101011001101111110 *
b00001110110110110011111000101110 +
#131000
b10001111010000000000101100010100 $
b00000011110101000001111011110110 %
b10010011000101000010101000001010 &
b10001111010000000000101100010100 )
b00000011110101000001111011110110 *
b10010011000101000010101000001010 +
#132000
b01001011011100111001110010001000 $
b01000010101001001011011101101100 %
b10001110000110000101001111110100 &
b01001011011100111001110010001000 )
b01000010101001001011011101101100 *
b10001110000110000101001111110100 +
#133000
b11011111110111111000100010101101 $
b10011011111001100100000001110010 %
b01111011110001011100100100011111 &
b11011111110111111000100010101101 )
b10011011111001100100000001110010 *
b01111011110001011100100100011111 +
#134000
b00100100010001011111010101000010 $
b11111111001111010010010010001010 %
b00100011100000110001100111001100 &
b00100100010001011111010101000010 )
b11111111001111010010010010001010 *
b00100011100000110001100111001100 +
#135000
b01001010101100000011101101110011 $
b00001011111001011111101010010010 %
b01010110100101100011011000000101 &
b01001010101100000011101101110011 )
b00001011111001011111101010010010 *
b01010110100101100011011000000101 +
#136000
b10100010010010100001101011100111 $
b00110100000011110010100110001000 %
b11010110010110010100010001101111 &
b10100010010010100001101011100111 )
b00110100000011110010100110001000 *
b11010110010110010100010001101111 +
#137000
b10011100100101101000010011111110 $
b00011001011011001101001001001110 %
b10110110000000110101011101001100 &
b10011100100101101000010011111110 )
b00011001011011001101001001001110 *
b10110110000000110101011101001100 +
#138000
b01110011100011111100010010101100 $
b10001100101010010001011100111000 %
b00000000001110001101101111100100 &
b01110011100011111100010010101100 )
b10001100101010010001011100111000 *
b00000000001110001101101111100100 +
#139000
b11000001001011001101111001110101 $
b11101001100100001111001001010111 %
b10101010101111011101000011001100 &
b11000001001011001101111001110101 )
b11101001100100001111001001010111 *
b10101010101111011101000011001100 +
#140000
b10100010000011001111000100010100 $
b10001001011000000001001100100001 %
b00101011011011010000010000110101 &
b10100010000011001111000100010100 )
b10001001011000000001001100100001 *
b00101011011011010000010000110101 +
#141000
b10001111101011111101000001100111 $
b01111101110101000001100001111011 %
b00001101100000111110100011100010 &
b10001111101011111101000001100111 )
b01111101110101000001100001111011 *
b00001101100000111110100011100010 +
#142000
b00010101000001010001000011100000 $
b10111101101100001010101011010100 %
b11010010101101011011101110110100 &
b00010101000001010001000011100000 )
b10111101101100001010101011010100 *
b11010010101101011011101110110100 +
#143000
b00110100100011000011010001110000 $
b11100000001000111011001100010100 %
b00010100101011111110011110000100 &
b00110100100011000011010001110000 )
b11100000001000111011001100010100 *
b00010100101011111110011110000100 +
#144000
b00100001011001110101000010101001 $
b01101010011111010101110011100100 %
b10001011111001001010110110001101 &
b00100001011001110101000010101001 )
b01101010011111010101110011100100 *
b10001011111001001010110110001101 +
#145000
b10001001101111000111011000001000 $
b11000000100100000111000011111111 %
b01001010010011001110011100000111 &
b10001001101111000111011000001000 )
b11000000100100000111000011111111 *
b01001010010011001110011100000111 +
#146000
b00111101111001011100001010000101 $
b11111011100001101101001110011111 %
b00111001011011001001011000100100 &
b00111101111001011100001010000101 )
b11111011100001101101001110011111 *
b00111001011011001001011000100100 +
#147000
b11011001100110110010111101110111 $
b01100001100101001010011110101110 %
b00111011001011111101011100100101 &
b11011001100110110010111101110111 )
b01100001100101001010011110101110 *
b00111011001011111101011100100101 +
#148000
b01101110100111010011100101000000 $
b00011000010011111111101001111111 %
b10000110111011010011001110111111 &
b01101110100111010011100101000000 )
b00011000010011111111101001111111 *
b10000110111011010011001110111111 +
#149000
b00011010111011100100011101001001 $
b11010101011010100100010100110100 %
b11110000010110001000110001111101 &
b00011010111011100100011101001001 )
b11010101011010100100010100110100 *
b11110000010110001000110001111101 +
#150000
b10100100000000111010110010000001 $
b10010111101001110001000110111011 %
b00111011101010101011111000111100 &
b10100100000000111010110010000001 )
b10010111101001110001000110111011 *
b00111011101010101011111000111100 +
#151000
b10000010011110100100111110100001 $
b11111000010011100101001101111100 %
b01111010110010001010001100011101 &
b10000010011110100100111110100001 )
b11111000010011100101001101111100 *
b01111010110010001010001100011101 +
#152000
b00001110110100100111100110010111 $
b10011100000000111100001101011100 %
b10101010110101100011110011110011 &
b00001110110100100111100110010111 )
b10011100000000111100001101011100 *
b10101010110101100011110011110011 +
#153000
b01010001110101111101100001100011 $
b10100011111001111000101000010101 %
b11110101101111110110001001111000 &
b01010001110101111101100001100011 )
b10100011111001111000101000010101 *
b11110101101111110110001001111000 +
#154000
b11001110101110011111001010111000 $
b01000011010011100111010011011010 %
b00010010000010000110011110010010 &
b11001110101110011111001010111000 )
b01000011010011100111010011011010 *
b00010010000010000110011110010010 +
#155000
b11100011000011111000101100110011 $
b00111011100110100100111100100111 %
b00011110101010011101101001011010 &
b11100011000011111000101100110011 )
b00111011100110100100111100100111 *
b00011110101010011101101001011010 +
